{
	"info": {
		"_postman_id": "dace57c0-f4f0-4430-8d5f-060fb482a989",
		"name": "CAPSTONE",
		"schema": "https://schema.getpostman.com/json/collection/v2.1.0/collection.json",
		"_exporter_id": "24773554"
	},
	"item": [
		{
			"name": "REGISTER USER",
			"request": {
				"method": "POST",
				"header": [],
				"body": {
					"mode": "raw",
					"raw": "    {\r\n        \"email\" : \"fordCruller@gmail.com\",\r\n        \"password\" : \"honeyDippedBacon\"\r\n    }",
					"options": {
						"raw": {
							"language": "json"
						}
					}
				},
				"url": {
					"raw": "localhost:4000/user/register",
					"host": [
						"localhost"
					],
					"port": "4000",
					"path": [
						"user",
						"register"
					]
				}
			},
			"response": []
		},
		{
			"name": "ALL USERS",
			"request": {
				"auth": {
					"type": "bearer",
					"bearer": [
						{
							"key": "token",
							"value": "eyJhbGciOiJIUzI1NiIsInR5cCI6IkpXVCJ9.eyJpZCI6IjYzZGZjZWY1NDAyMzVlODgxZDkzYzNjOSIsImVtYWlsIjoiZm9yZENydWxsZXJAZ21haWwuY29tIiwiaXNBZG1pbiI6dHJ1ZSwiaWF0IjoxNjc1NjE1OTUwfQ.t_lekFheqBcuCHtUS15IFXTXK1NqrnYswFuBeQehnxA",
							"type": "string"
						}
					]
				},
				"method": "GET",
				"header": [],
				"url": {
					"raw": "localhost:4000/user/all",
					"host": [
						"localhost"
					],
					"port": "4000",
					"path": [
						"user",
						"all"
					]
				}
			},
			"response": []
		},
		{
			"name": "LOGIN USER",
			"request": {
				"method": "POST",
				"header": [],
				"body": {
					"mode": "raw",
					"raw": "    {\r\n        \"email\" : \"fordCruller@gmail.com\",\r\n        \"password\" : \"honeyDippedBacon\"    \r\n    }",
					"options": {
						"raw": {
							"language": "json"
						}
					}
				},
				"url": {
					"raw": "localhost:4000/user/login",
					"host": [
						"localhost"
					],
					"port": "4000",
					"path": [
						"user",
						"login"
					]
				}
			},
			"response": []
		},
		{
			"name": "USER PROFILE",
			"protocolProfileBehavior": {
				"disableBodyPruning": true
			},
			"request": {
				"auth": {
					"type": "bearer",
					"bearer": [
						{
							"key": "token",
							"value": "eyJhbGciOiJIUzI1NiIsInR5cCI6IkpXVCJ9.eyJpZCI6IjYzZGNkYWY5NGI4NDJkNGU4M2RhMDQwNCIsImVtYWlsIjoicmF6cHV0aW5BcXVhdG9AZ21haWwuY29tIiwiaXNBZG1pbiI6ZmFsc2UsImlhdCI6MTY3NTQxODQzOX0.unkyHLBJHfXRfgudEjLiMXqMAemglApIpweH5q2GZLk",
							"type": "string"
						}
					]
				},
				"method": "GET",
				"header": [],
				"body": {
					"mode": "raw",
					"raw": "",
					"options": {
						"raw": {
							"language": "json"
						}
					}
				},
				"url": {
					"raw": "localhost:4000/user/63dcbc2d5621fa7ee6fdaf14/profile",
					"host": [
						"localhost"
					],
					"port": "4000",
					"path": [
						"user",
						"63dcbc2d5621fa7ee6fdaf14",
						"profile"
					]
				}
			},
			"response": []
		},
		{
			"name": "SET USER ADMIN",
			"request": {
				"auth": {
					"type": "bearer",
					"bearer": [
						{
							"key": "token",
							"value": "eyJhbGciOiJIUzI1NiIsInR5cCI6IkpXVCJ9.eyJpZCI6IjYzZGZjZWY1NDAyMzVlODgxZDkzYzNjOSIsImVtYWlsIjoiZm9yZENydWxsZXJAZ21haWwuY29tIiwiaXNBZG1pbiI6ZmFsc2UsImlhdCI6MTY3NTYxMTkyN30.6h3qmvZeqZvUC3agv-hMO07zTVOVcMHz4h8YS22j_G0",
							"type": "string"
						}
					]
				},
				"method": "PUT",
				"header": [],
				"body": {
					"mode": "raw",
					"raw": "{\r\n    \"isAdmin\" : \"true\"\r\n}",
					"options": {
						"raw": {
							"language": "json"
						}
					}
				},
				"url": {
					"raw": "localhost:4000/user/63dfcef540235e881d93c3c9/set-admin",
					"host": [
						"localhost"
					],
					"port": "4000",
					"path": [
						"user",
						"63dfcef540235e881d93c3c9",
						"set-admin"
					]
				}
			},
			"response": []
		},
		{
			"name": "POST PRODUCT",
			"request": {
				"auth": {
					"type": "bearer",
					"bearer": [
						{
							"key": "token",
							"value": "eyJhbGciOiJIUzI1NiIsInR5cCI6IkpXVCJ9.eyJpZCI6IjYzZGZjZWY1NDAyMzVlODgxZDkzYzNjOSIsImVtYWlsIjoiZm9yZENydWxsZXJAZ21haWwuY29tIiwiaXNBZG1pbiI6dHJ1ZSwiaWF0IjoxNjc1NjIxNTkxfQ.DsfHTsGtbdn70iaUceHHxM-qWzu8MOXt5TzDBv5OZO0",
							"type": "string"
						}
					]
				},
				"method": "POST",
				"header": [],
				"body": {
					"mode": "raw",
					"raw": "{\r\n    \"name\" : \"Cobweb Duster\",\r\n    \"price\" : \"800\",\r\n    \"description\" : \"Keep your mind clean so your memory don't get stuffy!\"\r\n}",
					"options": {
						"raw": {
							"language": "json"
						}
					}
				},
				"url": {
					"raw": "localhost:4000/product/",
					"host": [
						"localhost"
					],
					"port": "4000",
					"path": [
						"product",
						""
					]
				}
			},
			"response": []
		},
		{
			"name": "ALL PRODUCTS",
			"request": {
				"method": "GET",
				"header": []
			},
			"response": []
		},
		{
			"name": "ALL PRODUCTS (ADMIN)",
			"request": {
				"method": "GET",
				"header": []
			},
			"response": []
		},
		{
			"name": "PRODUCT DETAIL",
			"request": {
				"method": "GET",
				"header": []
			},
			"response": []
		},
		{
			"name": "UPDATE PRODUCT",
			"request": {
				"method": "GET",
				"header": []
			},
			"response": []
		},
		{
			"name": "ARCHIVE PRODUCT",
			"request": {
				"auth": {
					"type": "bearer",
					"bearer": [
						{
							"key": "token",
							"value": "eyJhbGciOiJIUzI1NiIsInR5cCI6IkpXVCJ9.eyJpZCI6IjYzZGZjZWY1NDAyMzVlODgxZDkzYzNjOSIsImVtYWlsIjoiZm9yZENydWxsZXJAZ21haWwuY29tIiwiaXNBZG1pbiI6dHJ1ZSwiaWF0IjoxNjc1NjIxNTkxfQ.DsfHTsGtbdn70iaUceHHxM-qWzu8MOXt5TzDBv5OZO0",
							"type": "string"
						}
					]
				},
				"method": "PUT",
				"header": [],
				"body": {
					"mode": "raw",
					"raw": "{\r\n    \"isActive\" : true\r\n}",
					"options": {
						"raw": {
							"language": "json"
						}
					}
				},
				"url": {
					"raw": "localhost:4000/product/63e0028da9df9a5063edf8cf/archive",
					"host": [
						"localhost"
					],
					"port": "4000",
					"path": [
						"product",
						"63e0028da9df9a5063edf8cf",
						"archive"
					]
				}
			},
			"response": []
		},
		{
			"name": "USER CART",
			"request": {
				"auth": {
					"type": "bearer",
					"bearer": [
						{
							"key": "token",
							"value": "eyJhbGciOiJIUzI1NiIsInR5cCI6IkpXVCJ9.eyJpZCI6IjYzZGNkYWY5NGI4NDJkNGU4M2RhMDQwNCIsImVtYWlsIjoicmF6cHV0aW5BcXVhdG9AZ21haWwuY29tIiwiaXNBZG1pbiI6ZmFsc2UsImlhdCI6MTY3NTc0MzU0Mn0.4n-ReFb6fXZZG1Ku_46LBV5z_ROZoaaCWyO-QtQwXJQ",
							"type": "string"
						}
					]
				},
				"method": "GET",
				"header": [],
				"url": {
					"raw": "localhost:4000/cart/63dcdaf94b842d4e83da0404/my-cart",
					"host": [
						"localhost"
					],
					"port": "4000",
					"path": [
						"cart",
						"63dcdaf94b842d4e83da0404",
						"my-cart"
					]
				}
			},
			"response": []
		},
		{
			"name": "ADD TO CART",
			"request": {
				"auth": {
					"type": "bearer",
					"bearer": [
						{
							"key": "token",
							"value": "eyJhbGciOiJIUzI1NiIsInR5cCI6IkpXVCJ9.eyJpZCI6IjYzZGNkYWY5NGI4NDJkNGU4M2RhMDQwNCIsImVtYWlsIjoicmF6cHV0aW5BcXVhdG9AZ21haWwuY29tIiwiaXNBZG1pbiI6ZmFsc2UsImlhdCI6MTY3NTc0MzU0Mn0.4n-ReFb6fXZZG1Ku_46LBV5z_ROZoaaCWyO-QtQwXJQ",
							"type": "string"
						}
					]
				},
				"method": "POST",
				"header": [],
				"body": {
					"mode": "raw",
					"raw": "{\r\n    \"product\": [\r\n        \"productId\": \"63e0028da9df9a5063edf8cf\",\r\n         \"quanitity\": \"5\"\r\n    ]\r\n}",
					"options": {
						"raw": {
							"language": "json"
						}
					}
				},
				"url": {
					"raw": "localhost:4000/cart/63dfcef540235e881d93c3c9",
					"host": [
						"localhost"
					],
					"port": "4000",
					"path": [
						"cart",
						"63dfcef540235e881d93c3c9"
					]
				}
			},
			"response": []
		},
		{
			"name": "UPDATE QUANTITY (CART)",
			"request": {
				"auth": {
					"type": "bearer",
					"bearer": [
						{
							"key": "token",
							"value": "eyJhbGciOiJIUzI1NiIsInR5cCI6IkpXVCJ9.eyJpZCI6IjYzZGNkYWY5NGI4NDJkNGU4M2RhMDQwNCIsImVtYWlsIjoicmF6cHV0aW5BcXVhdG9AZ21haWwuY29tIiwiaXNBZG1pbiI6ZmFsc2UsImlhdCI6MTY3NTc0MzU0Mn0.4n-ReFb6fXZZG1Ku_46LBV5z_ROZoaaCWyO-QtQwXJQ",
							"type": "string"
						}
					]
				},
				"method": "POST",
				"header": [],
				"body": {
					"mode": "raw",
					"raw": "{\r\n    \"product\": [\r\n        \"productId\": \"63e0028da9df9a5063edf8cf\",\r\n         \"quanitity\": \"5\"\r\n    ]\r\n}",
					"options": {
						"raw": {
							"language": "json"
						}
					}
				},
				"url": {
					"raw": "localhost:4000/cart/63dfcef540235e881d93c3c9",
					"host": [
						"localhost"
					],
					"port": "4000",
					"path": [
						"cart",
						"63dfcef540235e881d93c3c9"
					]
				}
			},
			"response": []
		},
		{
			"name": "REMOVE PRODUCT (CART)",
			"request": {
				"auth": {
					"type": "bearer",
					"bearer": [
						{
							"key": "token",
							"value": "eyJhbGciOiJIUzI1NiIsInR5cCI6IkpXVCJ9.eyJpZCI6IjYzZGNkYWY5NGI4NDJkNGU4M2RhMDQwNCIsImVtYWlsIjoicmF6cHV0aW5BcXVhdG9AZ21haWwuY29tIiwiaXNBZG1pbiI6ZmFsc2UsImlhdCI6MTY3NTc0MzU0Mn0.4n-ReFb6fXZZG1Ku_46LBV5z_ROZoaaCWyO-QtQwXJQ",
							"type": "string"
						}
					]
				},
				"method": "DELETE",
				"header": [],
				"body": {
					"mode": "raw",
					"raw": "{\r\n    \"productId\" : \"63dffc9bb5370eeffced6b31\",\r\n    \"quantity\" : \"1\"\r\n}",
					"options": {
						"raw": {
							"language": "json"
						}
					}
				},
				"url": {
					"raw": "localhost:4000/cart/63dfcef540235e881d93c3c9",
					"host": [
						"localhost"
					],
					"port": "4000",
					"path": [
						"cart",
						"63dfcef540235e881d93c3c9"
					]
				}
			},
			"response": []
		}
	]
}